<svg width="229" height="228" viewBox="0 0 229 228" fill="none" xmlns="http://www.w3.org/2000/svg">
<mask id="mask0" mask-type="alpha" maskUnits="userSpaceOnUse" x="0" y="0" width="229" height="228">
<ellipse cx="114.059" cy="114" rx="114.059" ry="114" fill="#C4C4C4"/>
</mask>
<g mask="url(#mask0)">
<circle cx="112.555" cy="114" r="118" fill="url(#paint0_linear)"/>
<path d="M125.858 225.797C124.512 225.468 123.095 225.454 121.75 225.754C121.535 225.797 121.306 225.869 121.135 225.998C120.791 226.255 120.691 226.742 120.719 227.171C120.82 228.216 121.678 229.132 122.695 229.39C123.711 229.647 124.841 229.318 125.629 228.617C126.058 228.23 126.416 227.715 126.444 227.128C126.473 226.556 126.101 225.926 125.528 225.826C125.385 225.94 125.442 226.212 125.614 226.269L125.858 225.797Z" fill="white"/>
<path d="M78.674 179.368C78.6454 187.999 77.4288 200.464 73.5216 210.54C67.0382 227.228 57.306 248.224 57.0197 248.882L57.0054 248.897C51.0659 252.518 43.9385 252.332 39.4159 251.673C36.6679 251.272 34.8789 250.7 34.8789 250.7C34.8789 250.7 36.8969 231.593 47.402 209.939C52.6689 199.062 59.3956 188.943 65.192 181.487C65.2206 181.458 65.2492 181.415 65.2778 181.386C65.3351 181.286 65.421 181.2 65.4925 181.1C65.5355 181.043 65.5784 181 65.607 180.943C65.65 180.9 65.6929 180.843 65.7072 180.8C65.7645 180.728 65.8074 180.671 65.8646 180.614C65.8789 180.599 65.8933 180.585 65.8933 180.585C65.9076 180.571 65.9219 180.556 65.9219 180.556C71.8042 173.085 76.5844 168.563 77.5863 169.107C78.1587 169.421 78.6883 173.5 78.674 179.368Z" fill="url(#paint1_linear)"/>
<path opacity="0.3" d="M78.674 179.371C78.6454 188.001 77.4288 200.467 73.5216 210.543C67.0382 227.231 57.306 248.227 57.0197 248.885L57.0054 248.899L39.4159 251.676C36.6679 251.275 34.8789 250.703 34.8789 250.703C34.8789 250.703 36.8969 231.596 47.402 209.942C52.6689 199.065 59.3956 188.946 65.192 181.489C61.8716 185.869 48.0031 204.918 44.2677 221.105C40.017 239.525 57.1486 232.426 64.1615 221.105C71.1601 209.784 78.4736 179.385 78.4736 179.385H78.674V179.371Z" fill="url(#paint2_linear)"/>
<path d="M59.5239 208.81C58.1357 208.28 65.3347 191.964 67.5673 191.821C69.8 191.664 60.7118 209.254 59.5239 208.81Z" fill="white"/>
<path d="M58.7952 210.539C57.6932 209.952 56.6627 213.015 57.6646 213.459C58.6664 213.903 60.0404 211.198 58.7952 210.539Z" fill="white"/>
<path d="M173.68 145.922C153.7 173.931 59.8267 171.856 47.6042 149.2C39.6323 134.401 40.5053 112.16 48.1766 91.6935C58.2524 64.8297 80.064 41 109.003 41C143.052 41 169.214 74.9197 177.086 105.905C181.079 121.577 180.392 136.505 173.68 145.922Z" fill="url(#paint3_linear)"/>
<path d="M54.6152 119.934C59.0805 139.012 141.604 141.087 161.87 123.798C182.136 106.509 152.954 45.096 108.243 47.7723C67.353 50.234 47.2874 88.6907 54.6152 119.934Z" fill="#DEF9F7"/>
<path d="M54.1855 117.614C58.6509 136.692 141.175 138.767 161.44 121.478C181.706 104.189 152.524 42.7757 107.813 45.452C66.9233 47.9137 46.8577 86.3704 54.1855 117.614Z" fill="url(#paint4_linear)"/>
<path opacity="0.3" d="M173.68 145.919C153.7 173.928 59.8267 171.852 47.6042 149.196C39.6323 134.397 40.5053 112.156 48.1766 91.6901C48.1766 91.6758 48.1909 91.6758 48.1909 91.6758C47.8618 92.878 39.9901 121.574 48.0192 134.197C56.2344 147.107 88.7229 145.318 123.601 143.829C158.48 142.326 170.016 137.274 175.869 127.427C180.478 119.685 175.841 102.61 173.665 95.6832L177.086 105.888C181.079 121.574 180.392 136.501 173.68 145.919Z" fill="url(#paint5_linear)"/>
<path d="M109.102 166.546C89.5948 166.518 75.526 164.328 67.6543 161.179H67.64C62.4734 159.118 59.9687 156.642 60.3408 154.109C60.5698 152.563 64.4055 151.204 70.4309 150.102C88.1493 146.896 124.831 145.923 144.596 148.928C146.299 149.186 147.874 149.472 149.305 149.787C149.606 149.858 149.906 149.93 150.192 150.002C150.25 150.016 150.292 150.03 150.364 150.03C153.77 150.875 156.189 151.891 157.262 153.15C157.534 153.465 157.72 153.794 157.821 154.123C159.653 160.435 126.735 166.546 109.102 166.546Z" fill="url(#paint6_linear)"/>
<path d="M157.589 152.549C157.517 152.735 157.417 152.936 157.26 153.136C155.342 155.841 147.599 159.319 147.599 159.319C147.599 159.319 117.801 147.125 93.6568 152.549C69.5123 157.973 67.6661 161.179 67.6661 161.179H67.6517C62.4851 159.118 59.9805 156.642 60.3526 154.109C60.5816 152.563 64.4172 151.204 70.4426 150.102C88.161 146.896 124.843 145.923 144.608 148.928C146.669 149.3 148.544 149.658 150.204 150.002C150.261 150.016 150.304 150.03 150.376 150.03C155.042 151.032 157.804 151.934 157.589 152.549Z" fill="url(#paint7_linear)" fill-opacity="0.1"/>
<path d="M149.304 149.776C144.695 154.184 122.569 158.005 109.96 157.991C87.3609 157.962 73.6213 154.398 70.4297 150.09C89.6795 146.613 131.299 145.768 149.304 149.776Z" fill="url(#paint8_linear)"/>
<path d="M147.886 238.161C145.167 254.248 130.754 264.982 110.102 264.982C92.1261 264.982 76.8837 258.284 72.862 243.514C68.8403 228.772 70.4003 201.493 75.7673 184.505C76.5688 181.972 77.542 179.524 78.6584 177.206L78.6727 177.177C79.6889 175.073 80.8195 173.07 82.0647 171.195C82.079 171.18 82.079 171.166 82.079 171.166C88.6339 161.291 98.2374 154.836 109.1 154.836C120.407 154.836 129.051 159.487 134.934 166.357C137.667 169.549 139.814 173.241 141.345 177.149C143.12 181.657 144.609 186.437 145.782 191.36C145.782 191.389 145.797 191.446 145.811 191.504C149.532 206.961 150.319 223.792 147.886 238.161Z" fill="url(#paint9_linear)"/>
<path opacity="0.3" d="M134.09 167.742C134.09 167.742 135.986 186.796 148.075 198.377C148.09 198.362 144.729 180.606 134.09 167.742Z" fill="url(#paint10_linear)"/>
<path d="M197.982 150.044C177.077 183.042 145.035 191.87 145.035 191.87C137.084 185.54 131.448 166.883 134.711 163.665L134.726 163.652C134.886 163.495 135.085 163.371 135.294 163.291C174.734 148.961 187.832 131.362 187.832 131.362C192.881 132.23 195.496 135.478 196.83 139.045C198.752 144.238 197.982 150.044 197.982 150.044Z" fill="url(#paint11_linear)"/>
<path opacity="0.3" d="M47.6006 149.201C47.6006 149.201 51.5651 144.578 59.3365 140.842C67.108 137.121 74.2641 134.202 75.3661 131.21C76.4681 128.219 54.0267 129.979 54.0267 129.979L42.8633 134.831C42.8776 134.831 44.6237 143.834 47.6006 149.201Z" fill="url(#paint12_linear)"/>
<path d="M187.831 131.373C184.615 131.906 182.703 146.429 186.366 149.759C190.029 153.089 196.688 151.757 196.688 151.757C196.688 151.757 209.342 140.102 187.831 131.373Z" fill="url(#paint13_linear)"/>
<path d="M89.5938 96.4329C89.5938 96.4329 95.2184 102.244 111.191 102.244C127.149 102.244 135.35 95.5312 135.35 95.5312C135.35 95.5312 128.308 105.063 111.191 105.063C94.0734 105.077 89.5938 96.4329 89.5938 96.4329Z" fill="#70E0DB"/>
<path d="M65.0528 65C65.0528 65 60.8598 70.3698 57.0528 79C57.0528 79 31.3962 93.0785 32.9706 109.137C34.273 122.533 71.6419 116.049 71.6419 116.049L72.9872 120.515C72.9872 120.515 41.243 126.726 30.2942 119.255C30.2942 119.255 24.8214 110.944 34.0527 95C46.1924 74.0332 65.0528 65 65.0528 65Z" fill="url(#paint14_linear)"/>
<path opacity="0.5" d="M67.7262 69.3815C66.6957 75.5643 80.4496 75.2924 99.1699 74.6769C121.669 73.9327 144.282 93.3113 157.449 79.4C159.624 77.11 138.07 47.0259 112.065 47.6986C86.0457 48.3713 68.6135 64.0144 67.7262 69.3815Z" fill="url(#paint15_linear)"/>
<path d="M71 88.9131C70.6279 89.7002 79.1293 81.5709 95.7457 84.5908C97.3772 84.8913 78.2992 73.413 71 88.9131Z" fill="url(#paint16_linear)"/>
<path d="M154.512 88.9131C154.884 89.7002 146.382 81.5709 129.766 84.5908C128.134 84.8913 147.213 73.413 154.512 88.9131Z" fill="url(#paint17_linear)"/>
<path opacity="0.5" d="M80.4786 123.19C79.2907 127.67 88.6651 132.15 111.693 131.019C139.545 129.659 145.456 123.82 144.096 122.203C143.28 121.229 134.936 126.482 112.051 121.473C96.9518 118.167 81.7237 118.481 80.4786 123.19Z" fill="url(#paint18_linear)"/>
<path opacity="0.3" d="M173.477 95.1026L172.805 93.0703C172.933 93.4567 173.191 94.158 173.477 95.1026Z" fill="url(#paint19_linear)"/>
<path opacity="0.3" d="M147.886 238.164C145.167 254.25 130.754 264.985 110.102 264.985C92.1261 264.985 76.8837 258.286 72.862 243.516C68.8403 228.775 70.4003 201.496 75.7673 184.508C76.5688 181.974 77.542 179.527 78.6584 177.208L78.6727 177.18C78.6727 177.18 67.7955 213.246 76.4829 236.217C85.1847 259.188 125.688 258.702 139.399 243.445C152.452 228.918 146.412 194.798 145.811 191.535C149.532 206.963 150.319 223.794 147.886 238.164Z" fill="url(#paint20_linear)"/>
<path d="M73.6362 228.62C76.7133 207.023 94.031 192.381 113.281 194.199C134.019 196.16 145.168 215.953 144.882 232.942C144.581 249.93 132.173 263.198 109.903 263.198C87.6478 263.198 70.7595 248.814 73.6362 228.62Z" fill="url(#paint21_linear)"/>
<path d="M73.8357 230.405C76.9128 208.808 94.2304 194.167 113.48 195.984C134.218 197.945 145.368 217.739 145.081 234.727C144.781 251.716 132.372 264.983 110.103 264.983C87.8329 264.983 70.9589 250.599 73.8357 230.405Z" fill="url(#paint22_radial)"/>
<path opacity="0.3" d="M134.933 166.372C130.539 173.27 106.309 177.292 92.3115 176.018C80.1175 174.902 81.9781 171.61 82.064 171.195C82.0783 171.18 82.0783 171.166 82.0783 171.166C88.6332 161.291 98.2367 154.836 109.1 154.836C120.392 154.85 129.051 159.487 134.933 166.372Z" fill="url(#paint23_linear)"/>
<path d="M126.317 178.34C125.187 178.712 125.144 187.786 126.317 189.26C127.491 190.72 129.394 190.276 130.024 188.129C130.654 185.997 128.02 177.781 126.317 178.34Z" fill="white"/>
<path d="M128.409 191.681C127.465 191.91 127.365 194.157 127.794 194.944C128.223 195.731 129.855 195.559 130.127 194.6C130.384 193.641 129.354 191.452 128.409 191.681Z" fill="white"/>
<path d="M124.929 44.9315C122.954 45.3895 139.542 54.1771 140.214 53.1323C140.887 52.0875 130.41 43.6577 124.929 44.9315Z" fill="white"/>
<path opacity="0.3" d="M197.982 150.043C177.077 183.041 145.036 191.868 145.036 191.868C137.085 185.539 131.448 166.882 134.711 163.664L134.727 163.651C134.913 163.511 135.096 163.399 135.294 163.289C135.294 163.289 138.825 184.07 155.513 180.038C175.324 175.248 186.417 142.727 186.417 142.727L187.373 132.969L196.814 139.057C198.752 144.236 197.982 150.043 197.982 150.043Z" fill="url(#paint24_linear)"/>
<path opacity="0.2" d="M55.2022 111.329C55.2022 111.329 54.229 104.831 55.374 96.1151C56.5189 87.399 58.8518 81.7744 60.2544 82.5615C61.6427 83.3487 61.428 91.893 62.2581 100.294C62.9021 106.835 64.1616 112.989 64.1616 112.989C64.1616 112.989 58.1362 118.757 55.2022 111.329Z" fill="url(#paint25_linear)"/>
<path d="M81.1925 216.698C84.8564 222.538 99.8985 219.432 116.858 221.078C133.818 222.738 136.709 228.248 140.287 227.132C143.865 226.015 138.212 200.483 112.88 198.751C87.5328 197.033 80.2765 215.253 81.1925 216.698Z" fill="url(#paint26_linear)" fill-opacity="0.5"/>
<path d="M56.7012 71.8509C56.7012 71.8509 41.3765 84.4169 42.0033 85.5879C42.6301 86.7589 57.2403 73.4861 56.7012 71.8509Z" fill="url(#paint27_linear)"/>
<path d="M185.521 137.167C185.341 130.639 195.701 122.343 199.687 119.124C200.686 120.789 198.887 122.64 201.347 121.97L221.582 142.947C192.128 158.394 185.746 145.328 185.521 137.167Z" fill="url(#paint28_linear)"/>
<path d="M220.479 113.025C220.479 113.025 188.033 114.134 198.786 133.48L214.604 121.341L220.479 113.025Z" fill="url(#paint29_linear)"/>
<path d="M219.786 119.698C219.786 119.698 225.436 128.423 221.584 142.951C221.584 142.951 199.248 141.056 197.101 129.537C195.589 121.419 219.786 119.698 219.786 119.698Z" fill="url(#paint30_linear)"/>
<path d="M220.483 113.025C220.483 113.025 226.603 126.682 222.534 138.644C222.534 138.644 210.221 139.149 204.804 136.488C196.107 132.205 196.686 127.241 197.864 124.812C199.779 120.901 220.483 113.025 220.483 113.025Z" fill="url(#paint31_linear)"/>
<path d="M200.066 120.196C200.066 120.196 198.7 116.491 198.997 109.58C199.293 102.67 201.336 97.358 202.182 96.4592C203.016 95.5596 205.698 95.8844 206.861 97.5138C208.024 99.1432 209.902 114.629 209.902 114.629C209.902 114.629 205.721 118.943 200.066 120.196Z" fill="url(#paint32_linear)"/>
<path d="M203.994 101.344C203.033 101.18 202.812 108.441 204.034 108.23C205.255 108.019 205.336 101.59 203.994 101.344Z" fill="white"/>
<path opacity="0.5" d="M221.582 142.951C220.767 143.391 219.06 144.286 218.762 144.351C219.228 143.624 219.561 140.267 219.855 138.638C221.056 138.766 221.802 138.603 222.548 138.439L221.582 142.951Z" fill="#2D719B"/>
<path d="M219.707 135.79C218.267 135.972 216.966 118.605 218.824 117.455C220.675 116.293 220.934 135.626 219.707 135.79Z" fill="white"/>
</g>
<path d="M66.9067 114.804C63.5004 118.654 70.728 122.876 76.6675 123.52C83.337 124.25 95.1731 121.602 94.4575 114.889C93.7419 108.177 74.8928 105.773 66.9067 114.804Z" fill="url(#paint33_linear)"/>
<path d="M67.3645 115.506C67.1642 116.608 90.9652 116.866 91.5234 112.658C92.0672 108.465 68.9246 107.019 67.3645 115.506Z" fill="url(#paint34_linear)"/>
<defs>
<linearGradient id="paint0_linear" x1="112.555" y1="-4" x2="112.555" y2="232" gradientUnits="userSpaceOnUse">
<stop stop-color="#7DFF92"/>
<stop offset="1" stop-color="#008916"/>
</linearGradient>
<linearGradient id="paint1_linear" x1="56.0142" y1="261.315" x2="59.174" y2="172.204" gradientUnits="userSpaceOnUse">
<stop stop-color="#70E0DB"/>
<stop offset="0.630208" stop-color="#EFEFEF"/>
</linearGradient>
<linearGradient id="paint2_linear" x1="56.7651" y1="251.666" x2="56.7651" y2="179.366" gradientUnits="userSpaceOnUse">
<stop stop-color="#30BEB8"/>
<stop offset="1" stop-color="#CCEDFF"/>
</linearGradient>
<linearGradient id="paint3_linear" x1="108.384" y1="180.58" x2="110.69" y2="45.6232" gradientUnits="userSpaceOnUse">
<stop stop-color="#70E0DB"/>
<stop offset="0.630208" stop-color="#EFEFEF"/>
</linearGradient>
<linearGradient id="paint4_linear" x1="110.345" y1="133.281" x2="110.345" y2="45.3799" gradientUnits="userSpaceOnUse">
<stop offset="0.229167" stop-color="#236192"/>
<stop offset="1"/>
</linearGradient>
<linearGradient id="paint5_linear" x1="110.78" y1="166.553" x2="110.78" y2="91.6755" gradientUnits="userSpaceOnUse">
<stop stop-color="#128E89"/>
<stop offset="1" stop-color="#CCEDFF"/>
</linearGradient>
<linearGradient id="paint6_linear" x1="103.192" y1="166.654" x2="103.908" y2="146.617" gradientUnits="userSpaceOnUse">
<stop stop-color="#155384"/>
<stop offset="1" stop-color="#2D719B"/>
</linearGradient>
<linearGradient id="paint7_linear" x1="103.07" y1="161.257" x2="103.446" y2="146.746" gradientUnits="userSpaceOnUse">
<stop stop-color="#B1CDE3"/>
<stop offset="1" stop-color="#B1C6D2"/>
</linearGradient>
<linearGradient id="paint8_linear" x1="108.708" y1="159.184" x2="110.539" y2="144.603" gradientUnits="userSpaceOnUse">
<stop stop-color="#3CD0CA"/>
<stop offset="1" stop-color="#70E0DB"/>
</linearGradient>
<linearGradient id="paint9_linear" x1="108.57" y1="277.278" x2="111.669" y2="158.938" gradientUnits="userSpaceOnUse">
<stop offset="0.166667" stop-color="#70E0DB"/>
<stop offset="0.630208" stop-color="white"/>
</linearGradient>
<linearGradient id="paint10_linear" x1="141.079" y1="198.372" x2="141.079" y2="167.74" gradientUnits="userSpaceOnUse">
<stop offset="0.317708" stop-color="#30BEB8"/>
<stop offset="1" stop-color="#16CCC4"/>
</linearGradient>
<linearGradient id="paint11_linear" x1="160.646" y1="200.621" x2="168.721" y2="131.879" gradientUnits="userSpaceOnUse">
<stop stop-color="#70E0DB"/>
<stop offset="0.630208" stop-color="#EFEFEF"/>
</linearGradient>
<linearGradient id="paint12_linear" x1="59.1346" y1="149.199" x2="59.1346" y2="129.465" gradientUnits="userSpaceOnUse">
<stop stop-color="#088781"/>
<stop offset="1" stop-color="#CCEDFF"/>
</linearGradient>
<linearGradient id="paint13_linear" x1="190.348" y1="155.914" x2="192.734" y2="131.554" gradientUnits="userSpaceOnUse">
<stop stop-color="#236192"/>
<stop offset="1" stop-color="#3B8AC9"/>
</linearGradient>
<linearGradient id="paint14_linear" x1="50.3574" y1="123.718" x2="57.5891" y2="66.138" gradientUnits="userSpaceOnUse">
<stop stop-color="#236192"/>
<stop offset="1" stop-color="#404040"/>
</linearGradient>
<linearGradient id="paint15_linear" x1="67.6673" y1="66.0606" x2="157.591" y2="66.0606" gradientUnits="userSpaceOnUse">
<stop/>
<stop offset="1" stop-color="#105F9D"/>
</linearGradient>
<linearGradient id="paint16_linear" x1="83.4173" y1="88.9659" x2="83.4173" y2="80.7802" gradientUnits="userSpaceOnUse">
<stop offset="0.458333" stop-color="#68EBE5"/>
<stop offset="1" stop-color="#1882D6"/>
</linearGradient>
<linearGradient id="paint17_linear" x1="142.094" y1="88.9659" x2="142.094" y2="80.7802" gradientUnits="userSpaceOnUse">
<stop offset="0.458333" stop-color="#68EBE5"/>
<stop offset="1" stop-color="#1882D6"/>
</linearGradient>
<linearGradient id="paint18_linear" x1="80.3757" y1="125.236" x2="144.269" y2="125.236" gradientUnits="userSpaceOnUse">
<stop/>
<stop offset="1" stop-color="#105F9D"/>
</linearGradient>
<linearGradient id="paint19_linear" x1="173.144" y1="95.1032" x2="173.144" y2="93.0739" gradientUnits="userSpaceOnUse">
<stop stop-color="#9D68C2"/>
<stop offset="1" stop-color="#CCEDFF"/>
</linearGradient>
<linearGradient id="paint20_linear" x1="109.938" y1="264.985" x2="109.938" y2="177.181" gradientUnits="userSpaceOnUse">
<stop stop-color="#9D68C2"/>
<stop offset="1" stop-color="#CCEDFF"/>
</linearGradient>
<linearGradient id="paint21_linear" x1="109.099" y1="263.202" x2="109.099" y2="194.048" gradientUnits="userSpaceOnUse">
<stop stop-color="#236192"/>
<stop offset="1" stop-color="#236192"/>
</linearGradient>
<radialGradient id="paint22_radial" cx="0" cy="0" r="1" gradientUnits="userSpaceOnUse" gradientTransform="translate(110.484 254.255) scale(52.7705)">
<stop offset="0.302083" stop-color="#70E0DB"/>
<stop offset="1" stop-color="#0E73C4"/>
</radialGradient>
<linearGradient id="paint23_linear" x1="108.41" y1="176.249" x2="108.41" y2="154.834" gradientUnits="userSpaceOnUse">
<stop stop-color="#124846"/>
<stop offset="0.708333" stop-color="#70E0DB"/>
</linearGradient>
<linearGradient id="paint24_linear" x1="162.41" y1="193.561" x2="168.524" y2="131.119" gradientUnits="userSpaceOnUse">
<stop stop-color="#30BEB8"/>
<stop offset="1" stop-color="#CCEDFF"/>
</linearGradient>
<linearGradient id="paint25_linear" x1="58.9876" y1="115.098" x2="61.2172" y2="82.5771" gradientUnits="userSpaceOnUse">
<stop/>
<stop offset="1" stop-color="#00E3FF"/>
</linearGradient>
<linearGradient id="paint26_linear" x1="125.374" y1="212.455" x2="68.8415" y2="212.455" gradientUnits="userSpaceOnUse">
<stop offset="0.229167" stop-color="#236192"/>
<stop offset="1"/>
</linearGradient>
<linearGradient id="paint27_linear" x1="47.9583" y1="86.68" x2="50.7293" y2="70.8068" gradientUnits="userSpaceOnUse">
<stop stop-color="white"/>
<stop offset="1" stop-color="white" stop-opacity="0.63"/>
</linearGradient>
<linearGradient id="paint28_linear" x1="235.333" y1="128.987" x2="199.88" y2="165.164" gradientUnits="userSpaceOnUse">
<stop offset="0.180562" stop-color="#70E0DB"/>
<stop offset="0.630208" stop-color="#EFEFEF"/>
</linearGradient>
<linearGradient id="paint29_linear" x1="218.501" y1="120.052" x2="215.105" y2="109.797" gradientUnits="userSpaceOnUse">
<stop stop-color="#3782BE"/>
<stop offset="1" stop-color="#0F5892"/>
</linearGradient>
<linearGradient id="paint30_linear" x1="220.169" y1="144.048" x2="205.825" y2="120.961" gradientUnits="userSpaceOnUse">
<stop stop-color="#70E0DB"/>
<stop offset="1" stop-color="#2D719B"/>
</linearGradient>
<linearGradient id="paint31_linear" x1="233.766" y1="112.911" x2="184.274" y2="116.042" gradientUnits="userSpaceOnUse">
<stop stop-color="#70E0DB"/>
<stop offset="0.630208" stop-color="#EFEFEF"/>
</linearGradient>
<linearGradient id="paint32_linear" x1="211.843" y1="91.2491" x2="192.456" y2="114.15" gradientUnits="userSpaceOnUse">
<stop stop-color="#70E0DB"/>
<stop offset="0.630208" stop-color="#EFEFEF"/>
</linearGradient>
<linearGradient id="paint33_linear" x1="84.6971" y1="139.041" x2="82.5503" y2="108.27" gradientUnits="userSpaceOnUse">
<stop stop-color="#236192"/>
<stop offset="0.385417" stop-color="#2D719B"/>
<stop offset="0.661458" stop-color="#2A6C98"/>
<stop offset="0.916667" stop-color="#70E0DB"/>
</linearGradient>
<linearGradient id="paint34_linear" x1="79.4408" y1="116.2" x2="79.4408" y2="109.309" gradientUnits="userSpaceOnUse">
<stop stop-color="#70E0DB"/>
<stop offset="1" stop-color="#236192"/>
</linearGradient>
</defs>
</svg>
