<svg width="69" height="60" viewBox="0 0 69 60" fill="none" xmlns="http://www.w3.org/2000/svg">
<path d="M33.5956 33.9876C29.4856 33.9876 26.0806 30.2472 27.2232 25.6768L27.2516 25.5518L24.2332 37.8019C24.0001 38.5693 23.9148 39.2059 23.9433 39.9677C24.074 43.5034 26.8992 46.3571 30.5487 46.3571C33.8514 46.3571 36.3866 43.907 36.9608 41.332C37.0745 40.8886 38.8253 33.7829 39.9736 29.0818C39.9849 29.0477 39.9906 29.0136 40.002 28.9738C39.9508 29.1785 39.8712 29.3717 39.803 29.5707C38.8992 32.1117 36.5344 33.9876 33.5956 33.9876Z" fill="white"/>
<path d="M32.4927 9.21459C33.2999 8.02084 34.2492 6.92942 35.2951 5.94031C35.4088 5.83231 35.5339 5.74136 35.6476 5.63335C35.585 5.5765 35.5339 5.50829 35.4713 5.44576C31.9185 2.08053 27.1265 0 21.8456 0C12.5912 0 4.83183 6.34391 2.64898 14.9162C2.60351 15.081 0.540029 23.5793 0.540029 23.5793C0.540029 23.5793 0 25.3359 0 26.5921C0 30.2359 2.95595 33.1919 6.59972 33.1919C9.9081 33.1919 12.3752 30.6907 12.9266 28.4851C13.3188 27.0185 14.9048 20.3903 15.28 18.8783C16.6499 13.3984 20.9417 12.7162 23.5452 13.4496C27.9053 14.6717 28.9057 18.7305 28.0928 22.09L30.0028 14.3022C30.6907 12.199 31.9299 9.89105 32.4927 9.21459Z" fill="white"/>
<path d="M48.9097 0.48877C43.7937 0.48877 39.1551 2.45561 35.6421 5.63894C39.337 9.23723 41.6506 14.2453 41.6506 19.8104C41.6506 21.6693 41.4517 23.2666 40.9685 24.972C40.9401 25.097 40.5365 26.7569 39.9964 28.9682C40.0021 28.9568 40.0021 28.9511 40.0078 28.9397C40.0078 28.9397 41.9974 20.8223 42.3555 19.35C43.373 15.2912 46.1584 13.7962 48.887 13.7109C53.1049 13.5745 56.3792 17.565 55.2139 22.2207C55.0263 23.0108 48.0116 51.2173 48.0116 51.2173C47.8467 51.8199 47.7103 52.6726 47.7103 53.4286C47.7103 57.0724 50.6833 59.9999 54.3271 59.9999C57.6298 59.9999 60.0457 57.6749 60.7449 55.0032C60.9666 54.1449 67.896 26.052 67.9756 25.6655C68.4076 23.7725 68.7146 22.1638 68.7146 20.2993C68.7203 9.3566 59.8524 0.48877 48.9097 0.48877Z" fill="white"/>
<path d="M28.0985 22.0957L27.2515 25.5519L28.0871 22.1696C28.0928 22.1412 28.0928 22.1184 28.0985 22.0957Z" fill="#EFEFEF"/>
<path d="M41.6505 19.8104C41.6505 14.2453 39.3369 9.23721 35.6419 5.63892C35.5282 5.74124 35.4032 5.83787 35.2895 5.94588C34.2492 6.93498 33.2999 8.02073 32.487 9.22016C31.9186 9.89093 30.685 12.2045 30.0029 14.3078L28.0929 22.0956C28.0872 22.1183 28.0872 22.1467 28.0815 22.1695L27.2459 25.5518L27.2175 25.6768C26.0749 30.2472 29.4856 33.9876 33.5898 33.9876C36.5287 33.9876 38.8935 32.1117 39.7973 29.5707C39.8655 29.3717 39.9451 29.1785 39.9963 28.9738C40.5363 26.7626 40.9456 25.1027 40.9683 24.9776C41.4515 23.2666 41.6505 21.6692 41.6505 19.8104Z" fill="#EFEFEF"/>
</svg>
